{
    "About"                 : "Info",
    "About "                : "Über ",
    "Help"                  : "Hilfe",
    "Module Manager"        : "Modulmanager",
    "Disable Sleep Mode"    : "Schlafmodus ausschalten",
    "Enable Sleep Mode"     : "Schlafmodus einschalten",
    "Leave A Review"        : "Bewertung abgeben",
    "Thank you for installing BibleZ HD Pro. Currently there are no modules installed. Please open the Module Manager and add at least one module!": "Danke, dass du BibleZ HD Pro installiert hast! Derzeit sind keine Module installiert. Öffne den Modulmanager und installiere wenigstens ein Modul!",
    "Open Module Manager"   : "Modulmanager öffnen",
    "Bookmark"              : "Lesezeichen",
    "Note"                  : "Notiz",
    "Bookmarks"              : "Lesezeichen",
    "Notes"                  : "Notizen",
    "The chapter is not available in this module! :-(" : "Das Kapitel ist in diesem Modul nicht enthalten :-(",
    "Installed Module!"     : "Modul installiert!",
    "Uninstalled Module!"   : "Module deinstaliert",
    "Downloading List of available Modules..." : "Liste der verfügbaren Module wird heruntergeladen...",
    "Couldn't get repositories. Please check your internet connection!" : "Modulquelle konnte nicht gefunden werden. Überprüfe die Internetverbindung!",
    "No Repositories found :(" : "Keine Modulquellen gefunden :(",
    "Back"                  : "Zurück",
    "Install"               : "Installieren",
    "Remove"                : "Entfernen",
    "Copyright & License"   : "Rechte & Lizenz",
    "Installing..."         : "Installiere...",
    "Installed"             : "Installiert",
    "No Module available"   : "Kein Modul verfügbar",
    "Install Size"          : "Größe",
    "Copyright"             : "Rechte",
    "License"               : "Lizenz",
    "Deleted"               : "Gelöscht: ",
    "Select a chapter!"     : "Bitte ein Kapitel auswählen!",
    "Add A Note"            : "Notiz hinzufügen",
    "Add your note here."   : "Füge hier deine Notiz ein.",
    "Cancel"                : "Abbrechen",
    "Add"                   : "Hinzufügen",
    "Edit"                  : "Bearbeiten",
    "Send eMail"            : "eMail senden",
    "Close"                 : "Schließen",
    "BibleZ HD Pro is based on the" : "BibleZ HD Pro basiert auf dem",
    "SWORD Project"         : "SWORD Projekt",
    "and it is licensed under" : "und ist lizensiert unter der",
    "Results"               : "Ergebnisse",
    "Result"                : "Ergebnis",
    "OT"                    : "AT",
    "All"                   : "Alle",
    "Regular Expression"    : "Regulärer Ausdruck",
    "Multiword"             : "Mehrere Wörter",
    "Exact Phrase"          : "Genaue Phrase",
    "No Bookmarks available. Tap on a verse number to add one!" : "Keine Lesezeichen vorhanden. Tippe auf einen Versnummer um ein Lesezeichen hinzuzufügen!",
    "No Notes available. Tap on a verse number to add one!" : "Keine Notizen vorhanden. Tippe auf einen Versnummer um eine Notiz hinzuzufügen!",
    "No Highlights available. Tap on a verse number to add one!" : "Keine Markierungen vorhanden. Tippe auf einen Versnummer um eine Markierung hinzuzufügen!",
    "Default"               : "Standard",
    "Gray"                  : "Grau",
    "Paper Grayscale"       : "Papier Graustufen",
    "Night View"            : "Nachtansicht",
    "Preferences"           : "Einstellungen",
    "General"               : "Allgemein",
    "Background"            : "Hintergrund",
    "Copy & Share"          : "Kopier.&Teilen",
    "Highlight"             : "Markieren",
    "Highlights"            : "Markierungen",
    "Copy"                  : "Kopieren",
    "Greek"                 : "Griechisch",
    "Hebrew"                : "Hebräisch",
    "Sync"                  : "Synchronisieren",
    "Title"                 : "Titel",
    "Folder"                : "Ordner",
    "Tags"                  : "Schlagworte",
    "Warning"               : "Warnung",
    "Reload"                : "Aktualisieren",
    "Accept"                : "Aktzeptieren",
    "Select Module Source"  : "Wähle Modulquelle aus",
    "Scrolling Method"      : "Scrollmodus",
    "Enable Linebreaks"     : "Zeilenumbrüche aktivieren",
    "Enable Headings"       : "Überschriften anzeigen",
    "Enable Book Introductions" : "Bucheinführungen anzeigen",
    "Enable Footnotes"      : "Fußnoten anzeigen",
    "Enable Cross References" : "Querverweise anzeigen",
    "Enable Strong's Numbers" : "Strong's aktivieren",
    "You have to install the 'StrongsGreek' and 'StrongsHebrew' module to use this feature!" : "Um diese Funktion zu nutzen, musst du 'StrongsGreek' und 'StrongsHebrew' installieren!",
    "Custom Fonts"          : "Eigene Schriftarten",
    "You need to install your font to '/usr/share/fonts' first! (<a href='http://zefanjas.de/biblez'>more Infos here</a>)." : "Du musst deine Schriftart erst nach '/usr/share/fonts' installieren. (<a href='http://zefanjas.de/biblez'>mehr Informationen</a>).",
    "Hebrew Font"           : "Hebräische Schriftart",
    "Greek Font"            : "Griechische Schriftart",
    "Backup & Restore"      : "Daten sichern & wiederherstellen",
    "Backup Data"           : "Daten sichern",
    "Backups are stored in '/media/internal/biblez'" : "Datensicherungen werden in '/media/internal/biblez' gespeichert",
    "Restore Data"          : "Daten wiederherstellen",
    "All your current data will be removed!!!" : "Alle aktuellen Daten werden gelöscht!!!",
    "Restore BibleZ Pro Backup (old webOS Phone version)" : "BibleZ Pro (Pre, Veer) Datensicherung wiederherstellen",
    "You can import your notes and bookmarks from BibleZ Pro (webOS phone version) to BibleZ HD Pro. Restoring your highlights isn't supported." : "Du kannst deine Notizen und Lesezeichen importieren. Die Wiederherstellung von Markierungen wird nicht unterstützt.",
    "Import Bookmarks and Notes" : "Lesezeichen und Notizen importieren",
    "Paste your backup here" : "Füge deinen Datensicherung hier ein",
    "Backuped"              : "Gesichert: ",
    "Old Notes"             : "alte Notizen",
    "Old Bookmarks"         : "alte Lesezeichen",
    "Restored"              : "Wiederhergestellt: ",
    "Verse View"            : "Versansicht",
    "Biblical Texts"        : "Bibeln",
    "Lexicons / Dictionaries" : "Lexika / Wörterbücher",
    "Generic Books"         : "Allgemeine Bücher",
    "Commentaries"          : "Kommentare",
    "Select a book!"        : "Wähle ein Buch aus!",
    "Don't show this again" : "Nicht wieder anzeigen",
    "Search"                : "Suche",
    "Personal"              : "Persönlich",
    "Search Bookmarks"      : "Lesezeichen durchsuchen",
    "Search Notes"          : "Notizen durchsuchen",
    "Add Bookmark"          : "Lesez. hinzuf.",
    "Add Note"              : "Notiz hinzuf.",
    "Added"                 : "Hinzugefügt:",
    "Deleted"               : "Gelöscht: ",
    "Starting BibleZ HD Pro..." : "Starte BibleZ HD Pro...",
    "Edit Bookmark"         : "Lesez. bearb.",
    "Words of Christ in Red": "Christi Worte in Rot"


}